…
#the data is tidy. The NAS are just empty data points
2. How many genera and species are represented in the data? What are the total number of observations? Which species is most/ least frequently sampled in the study?

```r
deserts %>%
  count(species) 
```

```
## # A tibble: 40 × 2
##    species             n
##    <chr>           <int>
##  1 albigula         1252
##  2 audubonii          75
##  3 baileyi          2891
##  4 bilineata         303
##  5 brunneicapillus    50
##  6 chlorurus          39
##  7 clarki              1
##  8 eremicus         1299
##  9 flavus           1597
## 10 fulvescens         75
## # ℹ 30 more rows
```

```r
deserts %>%
  count(genus)
```

```
## # A tibble: 26 × 2
##    genus                n
##    <chr>            <int>
##  1 Ammodramus           2
##  2 Ammospermophilus   437
##  3 Amphispiza         303
##  4 Baiomys             46
##  5 Calamospiza         13
##  6 Callipepla          16
##  7 Campylorhynchus     50
##  8 Chaetodipus       6029
##  9 Cnemidophorus        2
## 10 Crotalus             2
## # ℹ 16 more rows
```
…
```r
deserts %>%
  group_by(species) %>%
  summarize(samples=n()) %>%
  arrange(-samples) 
```

```
## # A tibble: 40 × 2
##    species      samples
##    <chr>          <int>
##  1 merriami       10596
##  2 penicillatus    3123
##  3 ordii           3027
##  4 baileyi         2891
##  5 megalotis       2609
##  6 spectabilis     2504
##  7 torridus        2249
##  8 flavus          1597
##  9 eremicus        1299
## 10 albigula        1252
## # ℹ 30 more rows
```
…
9. Which two species have, on average, the highest weight? Once you have identified them, make a new column that is a ratio of `weight` to `hindfoot_length`. Make a plot that shows the range of this new ratio and fill by sex.

```r
deserts %>% 
  filter(!is.na(weight)) %>% 
  group_by(species) %>% 
  summarize(mean_weight = mean(weight,na.rm =T)) %>% 
  arrange(-mean_weight)
```

```
## # A tibble: 22 × 2
##    species      mean_weight
##    <chr>              <dbl>
##  1 albigula           159. 
##  2 spectabilis        120. 
##  3 spilosoma           93.5
##  4 hispidus            65.6
##  5 fulviventer         58.9
##  6 ochrognathus        55.4
##  7 ordii               48.9
##  8 merriami            43.2
##  9 baileyi             31.7
## 10 leucogaster         31.6
## # ℹ 12 more rows
```
…
